%YAML 1.1
%TAG !u! tag:unity3d.com,2011:
--- !u!114 &11400000
MonoBehaviour:
  m_ObjectHideFlags: 0
  m_CorrespondingSourceObject: {fileID: 0}
  m_PrefabInstance: {fileID: 0}
  m_PrefabAsset: {fileID: 0}
  m_GameObject: {fileID: 0}
  m_Enabled: 1
  m_EditorHideFlags: 0
  m_Script: {fileID: 11500000, guid: 702cf5f5e6e816542b8488ca643bcf13, type: 3}
  m_Name: TomatoSlices
  m_EditorClassIdentifier: 
  prefab: {fileID: 8043155242864903574, guid: 6aecbc303a50ea643aedc959e6db1252, type: 3}
  sprite: {fileID: 21300000, guid: c9f08c3c1ae2a364aaeaa3712540b1d4, type: 3}
  objectName: Tomato Slices
